/In:"C:\Users\demu\source\repos\App2\App2\obj\x64\Release\ilc\in"
/Lib:"C:\Users\demu\source\repos\App2\App2\obj\x64\Release\ilc\in"
/Lib:"C:\Program Files (x86)\Microsoft SDKs\UWPNuGetPackages\microsoft.net.native.compiler\1.7.3\tools\x64\ilc\lib\Private"
/Lib:"C:\Program Files (x86)\Windows Kits\10\References\10.0.17134.0\Windows.ApplicationModel.Activation.ActivatedEventsContract\1.0.0.0"
/Lib:"C:\Program Files (x86)\Windows Kits\10\References\10.0.17134.0\Windows.ApplicationModel.Activation.ActivationCameraSettingsContract\1.0.0.0"
/Lib:"C:\Program Files (x86)\Windows Kits\10\References\10.0.17134.0\Windows.ApplicationModel.Activation.ContactActivatedEventsContract\1.0.0.0"
/Lib:"C:\Program Files (x86)\Windows Kits\10\References\10.0.17134.0\Windows.ApplicationModel.Activation.WebUISearchActivatedEventsContract\1.0.0.0"
/Lib:"C:\Program Files (x86)\Windows Kits\10\References\10.0.17134.0\Windows.ApplicationModel.Background.BackgroundAlarmApplicationContract\1.0.0.0"
/Lib:"C:\Program Files (x86)\Windows Kits\10\References\10.0.17134.0\Windows.ApplicationModel.Calls.Background.CallsBackgroundContract\1.0.0.0"
/Lib:"C:\Program Files (x86)\Windows Kits\10\References\10.0.17134.0\Windows.ApplicationModel.Calls.LockScreenCallContract\1.0.0.0"
/Lib:"C:\Program Files (x86)\Windows Kits\10\References\10.0.17134.0\Windows.ApplicationModel.FullTrustAppContract\1.0.0.0"
/Lib:"C:\Program Files (x86)\Windows Kits\10\References\10.0.17134.0\Windows.ApplicationModel.Preview.InkWorkspace.PreviewInkWorkspaceContract\1.0.0.0"
/Lib:"C:\Program Files (x86)\Windows Kits\10\References\10.0.17134.0\Windows.ApplicationModel.Preview.Notes.PreviewNotesContract\2.0.0.0"
/Lib:"C:\Program Files (x86)\Windows Kits\10\References\10.0.17134.0\Windows.ApplicationModel.Resources.Management.ResourceIndexerContract\1.0.0.0"
/Lib:"C:\Program Files (x86)\Windows Kits\10\References\10.0.17134.0\Windows.ApplicationModel.Search.Core.SearchCoreContract\1.0.0.0"
/Lib:"C:\Program Files (x86)\Windows Kits\10\References\10.0.17134.0\Windows.ApplicationModel.Search.SearchContract\1.0.0.0"
/Lib:"C:\Program Files (x86)\Windows Kits\10\References\10.0.17134.0\Windows.ApplicationModel.Wallet.WalletContract\1.0.0.0"
/Lib:"C:\Program Files (x86)\Windows Kits\10\References\10.0.17134.0\Windows.Devices.Portable.PortableDeviceContract\1.0.0.0"
/Lib:"C:\Program Files (x86)\Windows Kits\10\References\10.0.17134.0\Windows.Devices.Printers.Extensions.ExtensionsContract\2.0.0.0"
/Lib:"C:\Program Files (x86)\Windows Kits\10\References\10.0.17134.0\Windows.Devices.Scanners.ScannerDeviceContract\1.0.0.0"
/Lib:"C:\Program Files (x86)\Windows Kits\10\References\10.0.17134.0\Windows.Devices.Sms.LegacySmsApiContract\1.0.0.0"
/Lib:"C:\Program Files (x86)\Windows Kits\10\References\10.0.17134.0\Windows.Gaming.Input.GamingInputPreviewContract\1.0.0.0"
/Lib:"C:\Program Files (x86)\Windows Kits\10\References\10.0.17134.0\Windows.Gaming.Preview.GamesEnumerationContract\2.0.0.0"
/Lib:"C:\Program Files (x86)\Windows Kits\10\References\10.0.17134.0\Windows.Gaming.UI.GameChatOverlayContract\1.0.0.0"
/Lib:"C:\Program Files (x86)\Windows Kits\10\References\10.0.17134.0\Windows.Gaming.UI.GamingUIProviderContract\1.0.0.0"
/Lib:"C:\Program Files (x86)\Windows Kits\10\References\10.0.17134.0\Windows.Globalization.GlobalizationJapanesePhoneticAnalyzerContract\1.0.0.0"
/Lib:"C:\Program Files (x86)\Windows Kits\10\References\10.0.17134.0\Windows.Management.Deployment.Preview.DeploymentPreviewContract\1.0.0.0"
/Lib:"C:\Program Files (x86)\Windows Kits\10\References\10.0.17134.0\Windows.Management.Workplace.WorkplaceSettingsContract\1.0.0.0"
/Lib:"C:\Program Files (x86)\Windows Kits\10\References\10.0.17134.0\Windows.Media.AppBroadcasting.AppBroadcastingContract\1.0.0.0"
/Lib:"C:\Program Files (x86)\Windows Kits\10\References\10.0.17134.0\Windows.Media.AppRecording.AppRecordingContract\1.0.0.0"
/Lib:"C:\Program Files (x86)\Windows Kits\10\References\10.0.17134.0\Windows.Media.Capture.AppBroadcastContract\2.0.0.0"
/Lib:"C:\Program Files (x86)\Windows Kits\10\References\10.0.17134.0\Windows.Media.Capture.AppCaptureContract\4.0.0.0"
/Lib:"C:\Program Files (x86)\Windows Kits\10\References\10.0.17134.0\Windows.Media.Capture.AppCaptureMetadataContract\1.0.0.0"
/Lib:"C:\Program Files (x86)\Windows Kits\10\References\10.0.17134.0\Windows.Media.Capture.CameraCaptureUIContract\1.0.0.0"
/Lib:"C:\Program Files (x86)\Windows Kits\10\References\10.0.17134.0\Windows.Media.Capture.GameBarContract\1.0.0.0"
/Lib:"C:\Program Files (x86)\Windows Kits\10\References\10.0.17134.0\Windows.Media.Devices.CallControlContract\1.0.0.0"
/Lib:"C:\Program Files (x86)\Windows Kits\10\References\10.0.17134.0\Windows.Media.MediaControlContract\1.0.0.0"
/Lib:"C:\Program Files (x86)\Windows Kits\10\References\10.0.17134.0\Windows.Media.Playlists.PlaylistsContract\1.0.0.0"
/Lib:"C:\Program Files (x86)\Windows Kits\10\References\10.0.17134.0\Windows.Media.Protection.ProtectionRenewalContract\1.0.0.0"
/Lib:"C:\Program Files (x86)\Windows Kits\10\References\10.0.17134.0\Windows.Networking.NetworkOperators.LegacyNetworkOperatorsContract\1.0.0.0"
/Lib:"C:\Program Files (x86)\Windows Kits\10\References\10.0.17134.0\Windows.Networking.Sockets.ControlChannelTriggerContract\3.0.0.0"
/Lib:"C:\Program Files (x86)\Windows Kits\10\References\10.0.17134.0\Windows.Networking.XboxLive.XboxLiveSecureSocketsContract\1.0.0.0"
/Lib:"C:\Program Files (x86)\Windows Kits\10\References\10.0.17134.0\Windows.Perception.Automation.Core.PerceptionAutomationCoreContract\1.0.0.0"
/Lib:"C:\Program Files (x86)\Windows Kits\10\References\10.0.17134.0\Windows.Security.EnterpriseData.EnterpriseDataContract\5.0.0.0"
/Lib:"C:\Program Files (x86)\Windows Kits\10\References\10.0.17134.0\Windows.Security.ExchangeActiveSyncProvisioning.EasContract\1.0.0.0"
/Lib:"C:\Program Files (x86)\Windows Kits\10\References\10.0.17134.0\Windows.Services.Maps.GuidanceContract\3.0.0.0"
/Lib:"C:\Program Files (x86)\Windows Kits\10\References\10.0.17134.0\Windows.Services.Maps.LocalSearchContract\4.0.0.0"
/Lib:"C:\Program Files (x86)\Windows Kits\10\References\10.0.17134.0\Windows.Storage.Provider.CloudFilesContract\2.0.0.0"
/Lib:"C:\Program Files (x86)\Windows Kits\10\References\10.0.17134.0\Windows.System.Profile.ProfileRetailInfoContract\1.0.0.0"
/Lib:"C:\Program Files (x86)\Windows Kits\10\References\10.0.17134.0\Windows.System.Profile.SystemManufacturers.SystemManufacturersContract\2.0.0.0"
/Lib:"C:\Program Files (x86)\Windows Kits\10\References\10.0.17134.0\Windows.System.UserProfile.UserProfileContract\1.0.0.0"
/Lib:"C:\Program Files (x86)\Windows Kits\10\References\10.0.17134.0\Windows.System.UserProfile.UserProfileLockScreenContract\1.0.0.0"
/Lib:"C:\Program Files (x86)\Windows Kits\10\References\10.0.17134.0\Windows.UI.ApplicationSettings.ApplicationsSettingsContract\1.0.0.0"
/Lib:"C:\Program Files (x86)\Windows Kits\10\References\10.0.17134.0\Windows.UI.Core.AnimationMetrics.AnimationMetricsContract\1.0.0.0"
/Lib:"C:\Program Files (x86)\Windows Kits\10\References\10.0.17134.0\Windows.UI.Core.CoreWindowDialogsContract\1.0.0.0"
/Lib:"C:\Program Files (x86)\Windows Kits\10\References\10.0.17134.0\Windows.UI.Xaml.Hosting.HostingContract\2.0.0.0"
/Lib:"C:\Program Files (x86)\Windows Kits\10\References\10.0.17134.0\Windows.Web.Http.Diagnostics.HttpDiagnosticsContract\2.0.0.0"
/WinMD:"C:\Users\demu\source\repos\App2\App2\obj\x64\Release\ilc\in\WinMetadata\Windows.winmd"
/VSTelemetrySessionSettings:"{"AppId":1001,"AppInsightsInstrumentationKey":"f144292e-e3b2-4011-ac90-20e5c03fbce5","AsimovInstrumentationKey":"AIF-312cbd79-9dbb-4c48-a7da-3cc2a931cb70","HostName":"Dev14","Id":"07e9ad95-d061-4f40-a0bc-72ee2e87fa76","IsOptedIn":true,"ProcessStartTime":636693633302024794,"UserId":"69e3e17e-62e1-4d62-9ba4-489fec69b062"}"
/RdXmlPath:"C:\Program Files (x86)\Microsoft SDKs\UWPNuGetPackages\microsoft.net.native.compiler\1.7.3\tools\LibraryXML"
/RunOnlyPreDR
